{
    "KPackageStructure": "KWin/Script",
    "KPlugin": {
        "Authors": [
            {
                "Email": "notmart@gmail.com",
                "Name": "Marco Martin",
                "Name[ar]": "Marco Martin",
                "Name[az]": "Marco Martin",
                "Name[bg]": "Marco Martin",
                "Name[ca@valencia]": "Marco Martin",
                "Name[ca]": "Marco Martin",
                "Name[cs]": "Marco Martin",
                "Name[de]": "Marco Martin",
                "Name[en_GB]": "Marco Martin",
                "Name[es]": "Marco Martin",
                "Name[eu]": "Marco Martin",
                "Name[fi]": "Marco Martin",
                "Name[fr]": "Marco Martin",
                "Name[hu]": "Marco Martin",
                "Name[ia]": "Marco Martin",
                "Name[id]": "Marco Martin",
                "Name[it]": "Marco Martin",
                "Name[ja]": "Marco Martin",
                "Name[ka]": "Marco Martin",
                "Name[ko]": "Marco Martin",
                "Name[lt]": "Marco Martin",
                "Name[nl]": "Marco Martin",
                "Name[nn]": "Marco Martin",
                "Name[pl]": "Marco Martin",
                "Name[pt]": "Marco Martin",
                "Name[pt_BR]": "Marco Martin",
                "Name[ro]": "Marco Martin",
                "Name[ru]": "Marco Martin",
                "Name[sk]": "Marco Martin",
                "Name[sl]": "Marco Martin",
                "Name[sv]": "Marco Martin",
                "Name[ta]": "மார்கோ மார்ட்டின்",
                "Name[tr]": "Marco Martin",
                "Name[uk]": "Marco Martin",
                "Name[vi]": "Marco Martin",
                "Name[x-test]": "xxMarco Martinxx",
                "Name[zh_CN]": "Marco Martin",
                "Name[zh_TW]": "Marco Martin"
            }
        ],
        "Name": "KWin Script",
        "Name[ar]": "سكربت كوين",
        "Name[az]": "Kwin skripti",
        "Name[bg]": "Скрипт на KWin",
        "Name[ca@valencia]": "Script de KWin",
        "Name[ca]": "Script del KWin",
        "Name[cs]": "Skript KWinu",
        "Name[de]": "KWin-Skript",
        "Name[en_GB]": "KWin Script",
        "Name[es]": "Guion de KWin",
        "Name[eu]": "KWin gidoia",
        "Name[fi]": "KWin-skripti",
        "Name[fr]": "Script pour KWin",
        "Name[hu]": "KWin szkript",
        "Name[ia]": "Script de KWin",
        "Name[id]": "Skrip KWin",
        "Name[it]": "Script di KWin",
        "Name[ja]": "KWin スクリプト",
        "Name[ko]": "KWin 스크립트",
        "Name[lt]": "KWin scenarijus",
        "Name[nl]": "KWin-script",
        "Name[nn]": "KWin-skript",
        "Name[pl]": "Skrypt KWin",
        "Name[pt]": "Programa do KWin",
        "Name[pt_BR]": "Script do KWin",
        "Name[ro]": "Script KWin",
        "Name[ru]": "Сценарий диспетчера окон KWin",
        "Name[sk]": "KWin Skript",
        "Name[sl]": "KWin Script",
        "Name[sv]": "Kwin-skript",
        "Name[ta]": "கேவின் சிறுநிரல்",
        "Name[tr]": "KWin Betiği",
        "Name[uk]": "Скрипт KWin",
        "Name[vi]": "Kịch bản KWin",
        "Name[x-test]": "xxKWin Scriptxx",
        "Name[zh_CN]": "KWin 脚本",
        "Name[zh_TW]": "KWin 文稿",
        "Version": "1"
    }
}
